OpL/output.vcd
$date
   Mon Nov 29 18:20:38 2021
$end
$version
  P.20131013
$end
$timescale
  1ps
$end
$scope module testopl $end
$var wire 1 7! clk $end
$var wire 1 6! rst $end
$var wire 1 S en $end
$var wire 1 [ v1 [7] $end
$var wire 1 Z v1 [6] $end
$var wire 1 Y v1 [5] $end
$var wire 1 X v1 [4] $end
$var wire 1 W v1 [3] $end
$var wire 1 V v1 [2] $end
$var wire 1 U v1 [1] $end
$var wire 1 T v1 [0] $end
$var wire 1 c v2 [7] $end
$var wire 1 b v2 [6] $end
$var wire 1 a v2 [5] $end
$var wire 1 ` v2 [4] $end
$var wire 1 _ v2 [3] $end
$var wire 1 ^ v2 [2] $end
$var wire 1 ] v2 [1] $end
$var wire 1 \ v2 [0] $end
$var wire 1 P! miso $end
$var wire 1 Q! ss $end
$var wire 1 O! mosi $end
$var wire 1 "! busy $end
$var wire 1 N! sclk $end
$var wire 1 o val_nand [7] $end
$var wire 1 n val_nand [6] $end
$var wire 1 m val_nand [5] $end
$var wire 1 l val_nand [4] $end
$var wire 1 k val_nand [3] $end
$var wire 1 j val_nand [2] $end
$var wire 1 i val_nand [1] $end
$var wire 1 h val_nand [0] $end
$var wire 1 w val_nor [7] $end
$var wire 1 v val_nor [6] $end
$var wire 1 u val_nor [5] $end
$var wire 1 t val_nor [4] $end
$var wire 1 s val_nor [3] $end
$var wire 1 r val_nor [2] $end
$var wire 1 q val_nor [1] $end
$var wire 1 p val_nor [0] $end
$var wire 1 !! val_xor [7] $end
$var wire 1 ~ val_xor [6] $end
$var wire 1 } val_xor [5] $end
$var wire 1 | val_xor [4] $end
$var wire 1 { val_xor [3] $end
$var wire 1 z val_xor [2] $end
$var wire 1 y val_xor [1] $end
$var wire 1 x val_xor [0] $end
$scope module m $end
$var wire 1 6! rst $end
$var wire 1 7! clk $end
$var wire 1 S en $end
$var wire 1 [ v1 [7] $end
$var wire 1 Z v1 [6] $end
$var wire 1 Y v1 [5] $end
$var wire 1 X v1 [4] $end
$var wire 1 W v1 [3] $end
$var wire 1 V v1 [2] $end
$var wire 1 U v1 [1] $end
$var wire 1 T v1 [0] $end
$var wire 1 c v2 [7] $end
$var wire 1 b v2 [6] $end
$var wire 1 a v2 [5] $end
$var wire 1 ` v2 [4] $end
$var wire 1 _ v2 [3] $end
$var wire 1 ^ v2 [2] $end
$var wire 1 ] v2 [1] $end
$var wire 1 \ v2 [0] $end
$var wire 1 P! miso $end
$var wire 1 Q! ss $end
$var wire 1 N! sclk $end
$var wire 1 O! mosi $end
$var wire 1 o val_nand [7] $end
$var wire 1 n val_nand [6] $end
$var wire 1 m val_nand [5] $end
$var wire 1 l val_nand [4] $end
$var wire 1 k val_nand [3] $end
$var wire 1 j val_nand [2] $end
$var wire 1 i val_nand [1] $end
$var wire 1 h val_nand [0] $end
$var wire 1 w val_nor [7] $end
$var wire 1 v val_nor [6] $end
$var wire 1 u val_nor [5] $end
$var wire 1 t val_nor [4] $end
$var wire 1 s val_nor [3] $end
$var wire 1 r val_nor [2] $end
$var wire 1 q val_nor [1] $end
$var wire 1 p val_nor [0] $end
$var wire 1 !! val_xor [7] $end
$var wire 1 ~ val_xor [6] $end
$var wire 1 } val_xor [5] $end
$var wire 1 | val_xor [4] $end
$var wire 1 { val_xor [3] $end
$var wire 1 z val_xor [2] $end
$var wire 1 y val_xor [1] $end
$var wire 1 x val_xor [0] $end
$var wire 1 "! busy $end
$var wire 1 L! busy_er_octet $end
$var wire 1 8! en_er $end
$var wire 1 @! din [7] $end
$var wire 1 ?! din [6] $end
$var wire 1 >! din [5] $end
$var wire 1 =! din [4] $end
$var wire 1 <! din [3] $end
$var wire 1 ;! din [2] $end
$var wire 1 :! din [1] $end
$var wire 1 9! din [0] $end
$var wire 1 K! dout [7] $end
$var wire 1 J! dout [6] $end
$var wire 1 I! dout [5] $end
$var wire 1 H! dout [4] $end
$var wire 1 G! dout [3] $end
$var wire 1 F! dout [2] $end
$var wire 1 E! dout [1] $end
$var wire 1 D! dout [0] $end
$scope module er_octet $end
$var wire 1 6! rst $end
$var wire 1 7! clk $end
$var wire 1 8! en $end
$var wire 1 @! din [7] $end
$var wire 1 ?! din [6] $end
$var wire 1 >! din [5] $end
$var wire 1 =! din [4] $end
$var wire 1 <! din [3] $end
$var wire 1 ;! din [2] $end
$var wire 1 :! din [1] $end
$var wire 1 9! din [0] $end
$var wire 1 P! miso $end
$var wire 1 N! sclk $end
$var wire 1 O! mosi $end
$var wire 1 K! dout [7] $end
$var wire 1 J! dout [6] $end
$var wire 1 I! dout [5] $end
$var wire 1 H! dout [4] $end
$var wire 1 G! dout [3] $end
$var wire 1 F! dout [2] $end
$var wire 1 E! dout [1] $end
$var wire 1 D! dout [0] $end
$var wire 1 L! busy $end
$upscope $end
$upscope $end
$scope module s $end
$var wire 1 N! sclk $end
$var wire 1 O! mosi $end
$var wire 1 P! miso $end
$var wire 1 Q! ss $end
$var wire 1 Y! v1 [7] $end
$var wire 1 X! v1 [6] $end
$var wire 1 W! v1 [5] $end
$var wire 1 V! v1 [4] $end
$var wire 1 U! v1 [3] $end
$var wire 1 T! v1 [2] $end
$var wire 1 S! v1 [1] $end
$var wire 1 R! v1 [0] $end
$var wire 1 a! v2 [7] $end
$var wire 1 `! v2 [6] $end
$var wire 1 _! v2 [5] $end
$var wire 1 ^! v2 [4] $end
$var wire 1 ]! v2 [3] $end
$var wire 1 \! v2 [2] $end
$var wire 1 [! v2 [1] $end
$var wire 1 Z! v2 [0] $end
$var wire 1 i! val_nand [7] $end
$var wire 1 h! val_nand [6] $end
$var wire 1 g! val_nand [5] $end
$var wire 1 f! val_nand [4] $end
$var wire 1 e! val_nand [3] $end
$var wire 1 d! val_nand [2] $end
$var wire 1 c! val_nand [1] $end
$var wire 1 b! val_nand [0] $end
$var wire 1 q! val_nor [7] $end
$var wire 1 p! val_nor [6] $end
$var wire 1 o! val_nor [5] $end
$var wire 1 n! val_nor [4] $end
$var wire 1 m! val_nor [3] $end
$var wire 1 l! val_nor [2] $end
$var wire 1 k! val_nor [1] $end
$var wire 1 j! val_nor [0] $end
$var wire 1 y! val_xor [7] $end
$var wire 1 x! val_xor [6] $end
$var wire 1 w! val_xor [5] $end
$var wire 1 v! val_xor [4] $end
$var wire 1 u! val_xor [3] $end
$var wire 1 t! val_xor [2] $end
$var wire 1 s! val_xor [1] $end
$var wire 1 r! val_xor [0] $end
$upscope $end
$upscope $end
$enddefinitions $end
#0
$dumpvars
06!
07!
0S
0[
0Z
0Y
0X
0W
0V
0U
0T
0c
0b
0a
0`
0_
0^
0]
0\
xP!
1Q!
0O!
0"!
1N!
0o
0n
0m
0l
0k
0j
0i
0h
0w
0v
0u
0t
0s
0r
0q
0p
0!!
0~
0}
0|
0{
0z
0y
0x
0L!
x8!
x@!
x?!
x>!
x=!
x<!
x;!
x:!
x9!
0K!
0J!
0I!
0H!
0G!
0F!
0E!
0D!
xY!
xX!
xW!
xV!
xU!
xT!
xS!
xR!
xa!
x`!
x_!
x^!
x]!
x\!
x[!
xZ!
0i!
0h!
1g!
1f!
0e!
0d!
1c!
1b!
1q!
1p!
0o!
0n!
1m!
1l!
0k!
0j!
1y!
0x!
1w!
0v!
0u!
0t!
0s!
0r!
$end
#5000
17!
#10000
07!
#15000
17!
#20000
07!
#25000
17!
#30000
07!
#35000
17!
#40000
07!
#45000
17!
#50000
07!
#55000
17!
#60000
07!
#65000
17!
#70000
07!
#75000
17!
#80000
07!
#85000
17!
#90000
07!
#95000
17!
#100000
16!
07!
1S
1[
1Z
1Y
1X
1W
1V
1U
1T
1c
1b
#105000
17!
0Q!
1"!
#110000
07!
0S
#115000
17!
#120000
07!
#125000
17!
#130000
07!
#135000
17!
#140000
07!
#145000
17!
#150000
07!
#155000
17!
#160000
07!
#165000
17!
#170000
07!
#175000
17!
#180000
07!
#185000
17!
#190000
07!
#195000
17!
18!
1@!
1?!
1>!
1=!
1<!
1;!
1:!
19!
#200000
07!
#205000
17!
0P!
1O!
0N!
1L!
#210000
07!
#215000
17!
1N!
08!
1Y!
#220000
07!
#225000
17!
0N!
#230000
07!
#235000
17!
1N!
1X!
#240000
07!
#245000
17!
1P!
0N!
#250000
07!
#255000
17!
1N!
1W!
#260000
07!
#265000
17!
0N!
#270000
07!
#275000
17!
1N!
1V!
#280000
07!
#285000
17!
0P!
0N!
#290000
07!
#295000
17!
1N!
1U!
#300000
07!
#305000
17!
0N!
#310000
07!
#315000
17!
1N!
1T!
#320000
07!
#325000
17!
1P!
0N!
#330000
07!
#335000
17!
1N!
1S!
#340000
07!
#345000
17!
0N!
#350000
07!
#355000
17!
1N!
0L!
1I!
1H!
1E!
1D!
1R!
#360000
07!
#365000
17!
1m
1l
1i
1h
#370000
07!
#375000
17!
18!
0>!
0=!
0<!
0;!
0:!
09!
#380000
07!
#385000
17!
0N!
1L!
#390000
07!
#395000
17!
1N!
08!
1a!
#400000
07!
#405000
17!
0N!
#410000
07!
#415000
17!
1N!
1`!
#420000
07!
#425000
17!
0P!
0O!
0N!
#430000
07!
#435000
17!
1N!
0_!
#440000
07!
#445000
17!
0N!
#450000
07!
#455000
17!
1N!
0^!
#460000
07!
#465000
17!
1P!
0N!
#470000
07!
#475000
17!
1N!
0]!
#480000
07!
#485000
17!
0N!
#490000
07!
#495000
17!
1N!
0\!
#500000
07!
#505000
17!
0P!
0N!
#510000
07!
#515000
17!
1N!
0[!
#520000
07!
#525000
17!
0N!
#530000
07!
#535000
17!
1N!
0L!
1K!
1J!
0I!
0H!
1G!
1F!
0E!
0D!
0Z!
#540000
07!
#545000
17!
1w
1v
1s
1r
#550000
07!
#555000
17!
18!
0@!
0?!
#560000
07!
#565000
17!
1P!
0N!
1L!
#570000
07!
#575000
17!
1N!
08!
#580000
07!
#585000
17!
0P!
0N!
#590000
07!
#595000
17!
1N!
#600000
07!
#605000
17!
1P!
0N!
#610000
07!
#615000
17!
1N!
#620000
07!
#625000
17!
0P!
0N!
#630000
07!
#635000
17!
1N!
#640000
07!
#645000
17!
0N!
#650000
07!
#655000
17!
1N!
#660000
07!
#665000
17!
0N!
#670000
07!
#675000
17!
1N!
#680000
07!
#685000
17!
0N!
#690000
07!
#695000
17!
1N!
#700000
07!
#705000
17!
0N!
#710000
07!
#715000
17!
1N!
0L!
0J!
1I!
0G!
0F!
1e!
1d!
0q!
0p!
0m!
0l!
0y!
1v!
1u!
1t!
1s!
1r!
#720000
07!
#725000
17!
1Q!
0"!
1!!
1}
